<?xml version="1.0" encoding="UTF-8" standalone="no"?>
<svg
   version="1.0"
   width="150pt"
   height="150pt"
   viewBox="0 0 150 150"
   preserveAspectRatio="xMidYMid"
   id="svg276"
   sodipodi:docname="logo_150x150.svg"
   inkscape:version="1.2.2 (b0a8486541, 2022-12-01)"
   inkscape:export-filename="logo_150x150.jpg"
   inkscape:export-xdpi="96"
   inkscape:export-ydpi="96"
   xmlns:inkscape="http://www.inkscape.org/namespaces/inkscape"
   xmlns:sodipodi="http://sodipodi.sourceforge.net/DTD/sodipodi-0.dtd"
   xmlns:xlink="http://www.w3.org/1999/xlink"
   xmlns="http://www.w3.org/2000/svg"
   xmlns:svg="http://www.w3.org/2000/svg">
  <defs
     id="defs280">
    <linearGradient
       id="linearGradient10623"
       inkscape:swatch="gradient">
      <stop
         style="stop-color:#ffffff;stop-opacity:1;"
         offset="0"
         id="stop10619" />
      <stop
         style="stop-color:#ffffff;stop-opacity:0;"
         offset="1"
         id="stop10621" />
    </linearGradient>
    <linearGradient
       id="linearGradient5550"
       inkscape:swatch="solid">
      <stop
         style="stop-color:#ffffff;stop-opacity:1;"
         offset="0"
         id="stop5548" />
    </linearGradient>
    <linearGradient
       id="linearGradient5482"
       inkscape:swatch="solid">
      <stop
         style="stop-color:#000000;stop-opacity:1;"
         offset="0"
         id="stop5480" />
    </linearGradient>
    <linearGradient
       id="linearGradient3788"
       inkscape:swatch="solid">
      <stop
         style="stop-color:#000000;stop-opacity:1;"
         offset="0"
         id="stop3786" />
    </linearGradient>
    <linearGradient
       inkscape:collect="always"
       xlink:href="#linearGradient3788"
       id="linearGradient3790"
       x1="6026.7608"
       y1="-4811.9043"
       x2="7203.2177"
       y2="-4811.9043"
       gradientUnits="userSpaceOnUse"
       gradientTransform="matrix(1.2648147,0,0,1.2648147,-5165.7779,1064.6269)" />
    <linearGradient
       inkscape:collect="always"
       xlink:href="#linearGradient3788"
       id="linearGradient3822"
       gradientUnits="userSpaceOnUse"
       gradientTransform="matrix(1.2648147,0,0,1.2648147,-3342.3917,2894.5081)"
       x1="6026.7608"
       y1="-4811.9043"
       x2="7203.2177"
       y2="-4811.9043" />
    <linearGradient
       inkscape:collect="always"
       xlink:href="#linearGradient3788"
       id="linearGradient3890"
       gradientUnits="userSpaceOnUse"
       gradientTransform="matrix(1.2648147,0,0,1.2648147,-5172.1874,4708.1846)"
       x1="6026.7608"
       y1="-4811.9043"
       x2="7203.2177"
       y2="-4811.9043" />
    <linearGradient
       inkscape:collect="always"
       xlink:href="#linearGradient3788"
       id="linearGradient3923"
       gradientUnits="userSpaceOnUse"
       gradientTransform="matrix(1.2648147,0,0,1.2648147,-7006.0193,4708.209)"
       x1="6026.7608"
       y1="-4811.9043"
       x2="7203.2177"
       y2="-4811.9043" />
    <linearGradient
       inkscape:collect="always"
       xlink:href="#linearGradient3788"
       id="linearGradient3956"
       gradientUnits="userSpaceOnUse"
       gradientTransform="matrix(1.2648147,0,0,1.2648147,-3329.1168,4727.168)"
       x1="6026.7608"
       y1="-4811.9043"
       x2="7203.2177"
       y2="-4811.9043" />
    <linearGradient
       inkscape:collect="always"
       xlink:href="#linearGradient5550"
       id="linearGradient10629"
       gradientUnits="userSpaceOnUse"
       x1="9101.1338"
       y1="3168.4507"
       x2="17755.893"
       y2="3168.4507"
       gradientTransform="matrix(0.64473202,0,0,0.64473202,-5469.2696,-5259.0292)" />
  </defs>
  <sodipodi:namedview
     id="namedview278"
     pagecolor="#ffffff"
     bordercolor="#000000"
     borderopacity="0.25"
     inkscape:showpageshadow="2"
     inkscape:pageopacity="0.0"
     inkscape:pagecheckerboard="0"
     inkscape:deskcolor="#d1d1d1"
     inkscape:document-units="pt"
     showgrid="false"
     inkscape:zoom="2.8538388"
     inkscape:cx="110.37764"
     inkscape:cy="92.331775"
     inkscape:window-width="1920"
     inkscape:window-height="1064"
     inkscape:window-x="1920"
     inkscape:window-y="16"
     inkscape:window-maximized="1"
     inkscape:current-layer="g274" />
  <g
     transform="matrix(0.02688172,0,0,-0.02688172,-10.713026,161.45769)"
     fill="#000000"
     stroke="none"
     id="g274">
    <rect
       style="fill:url(#linearGradient10629);fill-opacity:1;stroke:#ffffff;stroke-width:2398.4;stroke-dasharray:none;stroke-opacity:1"
       id="rect5546"
       width="3181.5969"
       height="3181.5969"
       x="1597.7245"
       y="-4807.0264"
       transform="scale(1,-1)" />
    <circle
       style="fill:url(#linearGradient3890);fill-opacity:1;stroke:#000000;stroke-width:782.233;stroke-dasharray:none;stroke-opacity:1"
       id="path3679-5"
       cx="3194.5481"
       cy="-1377.9836"
       transform="scale(1,-1)"
       r="352.8833"
       inkscape:label="circulo" />
    <circle
       style="fill:url(#linearGradient3956);fill-opacity:1;stroke:#000000;stroke-width:782.233;stroke-dasharray:none;stroke-opacity:1"
       id="path3679-5-1"
       cx="5037.6187"
       cy="-1359.0002"
       transform="scale(1,-1)"
       r="352.8833"
       inkscape:label="circulo" />
    <circle
       style="fill:url(#linearGradient3923);fill-opacity:1;stroke:#000000;stroke-width:782.233;stroke-dasharray:none;stroke-opacity:1"
       id="path3679-5-2"
       cx="1360.7162"
       cy="-1377.9592"
       transform="scale(1,-1)"
       r="352.8833"
       inkscape:label="circulo" />
    <path
       d="M 410,3200 V 410 H 3200 5990 V 3200 5990 H 3200 410 Z M 2240,5030 V 4160 H 1370 500 v 863 c 0,475 3,867 7,870 3,4 395,7 870,7 h 863 z m 1828,-2 2,-868 h -870 -870 v 863 c 0,475 3,867 7,870 3,4 394,6 867,5 l 861,-3 z m 1830,0 2,-868 h -870 -870 v 870 870 l 868,-2 867,-3 z M 2240,3200 v -870 l -867,2 -868,3 -3,855 c -1,470 0,861 3,868 3,9 187,12 870,12 h 865 z m 1830,0 v -870 h -870 -870 v 870 870 h 870 870 z m 1825,0 v -865 l -867,-3 -868,-2 v 870 870 l 868,-2 867,-3 z M 2240,1370 V 500 l -867,2 -868,3 -3,868 -2,867 h 870 870 z m 1828,3 -3,-868 h -865 -865 l -3,868 -2,867 h 870 870 z m 1830,0 -3,-868 -867,-3 -868,-2 v 870 870 h 870 870 z"
       id="path262"
       style="fill-opacity:1;fill:#000000" />
    <circle
       style="fill:url(#linearGradient3790);fill-opacity:1;stroke:#000000;stroke-width:782.233;stroke-dasharray:none;stroke-opacity:1"
       id="path3679"
       cx="3200.9575"
       cy="-5021.54"
       transform="scale(1,-1)"
       r="352.8833"
       inkscape:label="circulo" />
    <circle
       style="fill:url(#linearGradient3822);fill-opacity:1;stroke:#000000;stroke-width:782.233;stroke-dasharray:none;stroke-opacity:1"
       id="path3679-6"
       cx="5024.3438"
       cy="-3191.6587"
       transform="scale(1,-1)"
       r="352.8833"
       inkscape:label="circulo" />
  </g>
</svg>
